%YAML 1.1
%TAG !u! tag:unity3d.com,2011:
--- !u!74 &7400000
AnimationClip:
  m_ObjectHideFlags: 0
  m_PrefabParentObject: {fileID: 0}
  m_PrefabInternal: {fileID: 0}
  m_Name: Target Idle
  serializedVersion: 6
  m_Legacy: 0
  m_Compressed: 0
  m_UseHighQualityCurve: 1
  m_RotationCurves: []
  m_CompressedRotationCurves: []
  m_EulerCurves: []
  m_PositionCurves: []
  m_ScaleCurves:
  - curve:
      serializedVersion: 2
      m_Curve:
      - serializedVersion: 2
        time: 0
        value: {x: 0, y: 0, z: 0}
        inSlope: {x: 7.7999997, y: 7.7999997, z: 7.7999997}
        outSlope: {x: 7.7999997, y: 7.7999997, z: 7.7999997}
        tangentMode: 0
      - serializedVersion: 2
        time: 0.16666667
        value: {x: 1.3, y: 1.3, z: 1.3}
        inSlope: {x: 5.3, y: 5.3, z: 5.3}
        outSlope: {x: 5.3, y: 5.3, z: 5.3}
        tangentMode: 0
      - serializedVersion: 2
        time: 0.41666666
        value: {x: 2, y: 2, z: 2}
        inSlope: {x: 2.8000004, y: 2.8000004, z: 2.8000004}
        outSlope: {x: 2.8000004, y: 2.8000004, z: 2.8000004}
        tangentMode: 0
      m_PreInfinity: 2
      m_PostInfinity: 2
      m_RotationOrder: 4
    path: 
  m_FloatCurves: []
  m_PPtrCurves: []
  m_SampleRate: 60
  m_WrapMode: 0
  m_Bounds:
    m_Center: {x: 0, y: 0, z: 0}
    m_Extent: {x: 0, y: 0, z: 0}
  m_ClipBindingConstant:
    genericBindings:
    - serializedVersion: 2
      path: 0
      attribute: 3
      script: {fileID: 0}
      typeID: 4
      customType: 0
      isPPtrCurve: 0
    pptrCurveMapping: []
  m_AnimationClipSettings:
    serializedVersion: 2
    m_AdditiveReferencePoseClip: {fileID: 0}
    m_AdditiveReferencePoseTime: 0
    m_StartTime: 0
    m_StopTime: 0.41666666
    m_OrientationOffsetY: 0
    m_Level: 0
    m_CycleOffset: 0
    m_HasAdditiveReferencePose: 0
    m_LoopTime: 1
    m_LoopBlend: 0
    m_LoopBlendOrientation: 0
    m_LoopBlendPositionY: 0
    m_LoopBlendPositionXZ: 0
    m_KeepOriginalOrientation: 0
    m_KeepOriginalPositionY: 1
    m_KeepOriginalPositionXZ: 0
    m_HeightFromFeet: 0
    m_Mirror: 0
  m_EditorCurves:
  - curve:
      serializedVersion: 2
      m_Curve:
      - serializedVersion: 2
        time: 0
        value: 0
        inSlope: 7.7999997
        outSlope: 7.7999997
        tangentMode: 34
      - serializedVersion: 2
        time: 0.16666667
        value: 1.3
        inSlope: 5.3
        outSlope: 5.3
        tangentMode: 34
      - serializedVersion: 2
        time: 0.41666666
        value: 2
        inSlope: 2.8000004
        outSlope: 2.8000004
        tangentMode: 34
      m_PreInfinity: 2
      m_PostInfinity: 2
      m_RotationOrder: 4
    attribute: m_LocalScale.x
    path: 
    classID: 4
    script: {fileID: 0}
  - curve:
      serializedVersion: 2
      m_Curve:
      - serializedVersion: 2
        time: 0
        value: 0
        inSlope: 7.7999997
        outSlope: 7.7999997
        tangentMode: 34
      - serializedVersion: 2
        time: 0.16666667
        value: 1.3
        inSlope: 5.3
        outSlope: 5.3
        tangentMode: 34
      - serializedVersion: 2
        time: 0.41666666
        value: 2
        inSlope: 2.8000004
        outSlope: 2.8000004
        tangentMode: 34
      m_PreInfinity: 2
      m_PostInfinity: 2
      m_RotationOrder: 4
    attribute: m_LocalScale.y
    path: 
    classID: 4
    script: {fileID: 0}
  - curve:
      serializedVersion: 2
      m_Curve:
      - serializedVersion: 2
        time: 0
        value: 0
        inSlope: 7.7999997
        outSlope: 7.7999997
        tangentMode: 34
      - serializedVersion: 2
        time: 0.16666667
        value: 1.3
        inSlope: 5.3
        outSlope: 5.3
        tangentMode: 34
      - serializedVersion: 2
        time: 0.41666666
        value: 2
        inSlope: 2.8000004
        outSlope: 2.8000004
        tangentMode: 34
      m_PreInfinity: 2
      m_PostInfinity: 2
      m_RotationOrder: 4
    attribute: m_LocalScale.z
    path: 
    classID: 4
    script: {fileID: 0}
  m_EulerEditorCurves: []
  m_HasGenericRootTransform: 0
  m_HasMotionFloatCurves: 0
  m_GenerateMotionCurves: 0
  m_Events: []
